{
  "title": "Days Open by Program",
  "id": "daysOpenByProgram",
  "position": {
    "size_x": 4,
    "size_y": 3,
    "expanded_x": 4,
    "expanded_y": 3,
    "row": 10,
    "col": 1
  },
  "lastUpdated": {
    "resource_management_data": "report_date"
  },
  "summaryViewType": "drilldownView",
  "summaryViewOptions": {
    "activeView": "daysOpenByProgramColumnRange",
    "views": {
      "daysOpenByProgramColumnRange": {
        "viewType": "columnRangeChart",
        "tooltipEnabled": true,
        "yTitle": "Days",
        "plotOptionsColumnRange": {
          "dataLabels": {
            "enabled": true,
            "color": "white"
          }
        },
        "dataTransform": {
          "row": "category",
          "nameColumn": "client",
          "titleFormats": {
            "category": "titleKeepSymbols"
          },
          "seriesMap" : [
            {"name": "range", "minColumn": "min_req_days_open", "maxColumn": "max_req_days_open"},
            {"name": "average", "seriesColumn": "avg_req_days_open"}
          ]
        },
        "seriesOptions": {
          "name": {
            "Range": {},
            "Average": {"type": "scatter", "color": "red"}
          }
        },
        "chartPagingSize": 20,
        "queryTemplate": "SELECT client, MIN(req_days_open) AS min_req_days_open, MAX(req_days_open) AS max_req_days_open, ROUND(AVG(req_days_open), 0)::FLOAT AS avg_req_days_open FROM resource_management_data WHERE client IS NOT NULL AND req_number_openings IS NOT NULL AND req_current_parent_status IN ('open', 'approved', 'sourcing') AND ${reqTypeClause} AND ${managerClause} AND ${clientProgramClause_resourceManagementData} AND ${hiringManagerClause} AND ${recruiterClause} AND report_date = (SELECT MAX(report_date) FROM resource_management_data WHERE report_date BETWEEN '${startDate}' AND '${endDate}') GROUP BY client ORDER BY SUM(req_number_openings) DESC ${cardFilter_pagingClause}"
      },
      "daysOpenByProgramHistogram" : {
        "viewType": "histogramChart",
        "tooltipEnabled": true,
        "legendEnabled": false,
        "xTitle": "Days Open",
        "dataTransform": {
          "row": "category",
          "nameColumn": "range",
          "titleFormats": {
            "category": "none"
          }
        },
        "queryTemplate": "SELECT * FROM histogram(array(SELECT req_days_open FROM resource_management_data WHERE client = '${cardFilter_program}' AND req_days_open IS NOT NULL AND req_number_openings IS NOT NULL AND req_current_parent_status IN ('open', 'approved', 'sourcing') AND ${reqTypeClause} AND ${managerClause} AND ${clientProgramClause_resourceManagementData} AND ${hiringManagerClause} AND ${recruiterClause} AND report_date = (SELECT MAX(report_date) FROM resource_management_data WHERE report_date BETWEEN '${startDate}' AND '${endDate}') ORDER BY req_days_open), ${binClause})"
      },
      "daysOpenByProgramTable": {
        "viewType": "table",
        "tablePageSize": 12,
        "numColumns": 9,
        "dataTransform": {},
        "controls": {
          "rightControlsContent": ["components/deckster/views/drilldownView/drilldownView-controls.html"]
        },
        "queryTemplate": "SELECT requisition_number, req_days_open, csc_title, req_recruiter_name, req_hiring_manager_name, security_clearance, client, work_state, work_city FROM resource_management_data WHERE client = '${cardFilter_program}' AND req_days_open IS NOT NULL AND req_number_openings IS NOT NULL AND req_current_parent_status IN ('open', 'approved', 'sourcing') AND ${reqTypeClause} AND ${managerClause} AND ${clientProgramClause_resourceManagementData} AND ${hiringManagerClause} AND ${recruiterClause} AND report_date = (SELECT MAX(report_date) FROM resource_management_data WHERE report_date BETWEEN '${startDate}' AND '${endDate}') AND ${rangeClause} ORDER BY req_days_open"
      }
    }
  }
}
