{
  "title": "Hires",
  "id": "hiresLineChart",
  "help": ["components/cards/helps/hires_summary.html"],
  "position": {
    "size_x": 4,
    "size_y": 2,
    "row": 10,
    "col": 1,
    "expanded_x": 4,
    "expanded_y": 2
  },
  "lastUpdated": {
    "permast_data": "report_date"
  },
  "summaryViewType": "lineChart",
  "summaryViewOptions": {
    "tooltipEnabled": true,
    "legendEnabled": false,
    "zoomType": "x",
    "dataTransform": {
      "row": "category",
      "nameColumn": "week_ending_date",
      "titleFormats": {
        "category": {
          "type": "date",
          "format": "MM-DD-YYYY"
        }
      }
    },
    "queryTemplate": "SELECT data.hires, weeks.week_ending_date FROM (SELECT count(DISTINCT personnel_number) AS hires, (date_trunc('week', hire_date + '2 days'::interval) + '4 days'::interval)::DATE as week_ending_date FROM permast_data WHERE ${managerClause} AND ${removeCasualEmployeesClause} AND hire_date BETWEEN '${startDate}' AND '${endDate}' GROUP BY week_ending_date ORDER BY week_ending_date) data RIGHT JOIN (SELECT (date_trunc('week', generate_series(GREATEST('${startDate}', (SELECT MIN(created_at) FROM glassdoor_company_data WHERE to_char(created_at, 'D') = '6')), '${endDate}', '1 week'::interval) + '2 days'::interval) + '4 days'::interval)::DATE AS week_ending_date) weeks ON data.week_ending_date = weeks.week_ending_date;"
  }
}
