{
  "id": "humanCapitalSummary",
  "position": {
    "size_x": 2,
    "size_y": 3,
    "row": 1,
    "col": 1
  },
  "lastUpdated": {
    "permast_data": "report_date"
  },
  "summaryViewType": "drilldownView",
  "summaryViewOptions": {
    "activeView": "hcSummaryBarChart",
    "views": {
      "hcSummaryBarChart": {
        "viewType": "barChart",
        "tooltipEnabled": true,
        "columnStacking": "normal",
        "stackedGroups": [
          {
            "name": "Voluntary Terminations Of Non Casual Employees",
            "stack": "Terminations"
          },
          {
            "name": "Voluntary Terminations",
            "stack": "Terminations"
          },
          {
            "name": "Involuntary Terminations Of Non Casual Employees",
            "stack": "Terminations"
          },
          {
            "name": "Involuntary Terminations",
            "stack": "Terminations"
          }
        ],
        "dataTransform": {
          "row": "category",
          "titleFormats": {
            "category": "name"
          }
        },
        "queryTemplate": "SELECT ${subManagerType}, ${removeCasualEmployeesClauseHCS} FROM human_capital_summary_${subManagerType} WHERE ${managerClause}"
      },
      "hcDetailsTable": {
        "viewType": "table",
        "numColumns": 8,
        "dataTransform": {},
        "controls": {
          "rightControlsContent": "components/deckster/views/drilldownView/drilldownView-controls.html"
        },
        "hiddenColumns": ["personnel_number", "report_date"],
        "queryTemplate": "SELECT DISTINCT ON (personnel_number) personnel_number, report_date, last_name, first_name, layer_3_manager, layer_4_manager, to_char(hire_date, 'YYYY-MM-DD') AS hire_date, to_char(termination_date, 'YYYY-MM-DD') AS termination_date, termination_type, to_char(age(termination_date, hire_date), 'fmYY\"y\" fmMM\"m\" fmDD\"d\"') AS tenure FROM permast_data WHERE ${activeClause} AND ${removeCasualEmployeesClause} AND report_date = (SELECT max(report_date) FROM permast_data) AND ${managerClause} AND date_trunc('day', report_date)::DATE BETWEEN '${fiscalYearStart}' AND '${fiscalYearEnd}' AND personnel_number IS NOT NULL ORDER BY personnel_number ASC, report_date DESC"
      }
    }
  },
  "detailsViewType": "table",
  "detailsViewOptions": {
    "numColumns": 3,
    "dataTransform": {},
    "hiddenColumns": ["personnel_number", "report_date"],
    "queryTemplate": "SELECT DISTINCT ON (personnel_number) personnel_number, report_date, first_name, last_name, ${subManagerType} FROM permast_data WHERE employment_status = 'active' AND ${removeCasualEmployeesClause} AND report_date = (SELECT max(report_date) FROM permast_data) AND ${managerClause} AND ${subManagerType} IS NOT NULL AND date_trunc('day', report_date)::DATE BETWEEN '${startDate}' AND '${endDate}' ORDER BY personnel_number ASC, report_date DESC"
  },
  "help": ["components/cards/helps/humanCapitalSummary_hcSummaryBarChart.html", "components/cards/helps/humanCapitalSummary_hcDetailsTable.html", "components/cards/helps/humanCapitalSummary_details.html"]
}
