{
  "title": "Requisition Locations",
  "id": "requisitionLocations",
  "position": {
    "size_x": 2,
    "size_y": 3,
    "row": 1,
    "col": 3
  },
  "lastUpdated": {
    "resource_management_with_accepted": "report_date"
  },
  "summaryViewType": "geoMap",
  "summaryViewOptions": {
    "center": [40, -100],
    "zoom": 3,
    "minZoom": 3,
    "zoomTrigger": 12,
    "tooltip": {
      "backgroundColor": "none",
      "borderWidth": 0,
      "shadow": false,
      "useHTML": true,
      "padding": 0
    },
    "queryTemplate": "SELECT  AVG (req_days_open), aging, req_type, req_current_parent_status, latitude, longitude, req_creation_date, report_date FROM resource_management_with_accepted WHERE report_date = (SELECT MAX(report_date) FROM resource_management_with_accepted) AND req_current_parent_status IN ('open', 'approved', 'sourcing') AND ${reqAcceptedClause} AND ${subManagerType} IS NOT NULL AND ${managerClause}  AND ${clientProgramClause_resourceManagementData} AND ${hiringManagerClause} AND ${recruiterClause} AND latitude IS NOT NULL AND longitude IS NOT NULL AND ${reqTypeClause} AND date_trunc('day', req_creation_date)::DATE BETWEEN '${startDate}' AND '${endDate}' GROUP BY req_creation_date, aging, req_type, req_current_parent_status, req_days_open, latitude, longitude, report_date ORDER BY req_creation_date"
  }
}
