{
  "title": "Action Items, Client Interactions, and TPM & Schedule",
  "id": "salesforceTaskList",
  "position": {
    "size_x": 4,
    "size_y": 3,
    "row": 1,
    "col": 1,
    "expanded_x": 4,
    "expanded_y": 3
  },
  "summaryViewType": "table",
  "summaryViewOptions": {
    "tooltipEnabled": true,
    "tablePageSize": 12,
    "columnBreakpoint": 5,
    "numColumns": 3,
    "message": "Please select a deck filter.",
    "apiUrl": "/api/analytics/salesforce_task_list",
    "dataFormats": {
      "url": "none"
    }
  }
}
