{
  "title": "Staffing - Recent Changes",
  "id": "staffingChangeByMonth",
  "position": {
    "size_x": 4,
    "size_y": 3,
    "row": 5,
    "col": 4,
    "expanded_x": 2,
    "expanded_y": 3
  },
  "summaryViewType": "columnChart",
  "summaryViewOptions": {
    "tooltipEnabled": true,
    "zoomType": "x",
    "dataTransform": {
      "row": "category",
      "nameColumn": "staffing_source",
      "titleFormats": {
        "category": "titleKeepSymbols",
        "series": "titleKeepSymbols"
      }
    },
    "seriesOptions": {
      "name": {
        "Change from FY Start": {
          "color": "#618EB9"
        },
        "Change from Previous Period": {
          "color": "#618E27"
        }
      }
    },
    "yAxis": {
      "allowDecimals": false,
      "min": 0
    },
    "seriesBackgroundColor": "#000000",
    "dataLabelsColor": "white",
    "apiUrl": "/api/analytics/staffing_change_by_month"
  }
}
