{
  "id": 0,
  "title": "Human Capital",
  "cards": [
    "humanCapitalSummary",
    "employeeLocations",
    "hiresAndAttrition",
    "headCount",
    "glassdoorRating",
    "hires",
    "voluntaryTerminations",
    "employeeAttritionByLevel"
  ],
  "gridsterOpts": {
    "widget_base_dimensions": [
      "auto",
      150
    ]
  },
  "synchronizedCharts": {
    "glassdoorCharts": {
      "charts": ["glassdoorRating", "hires", "voluntaryTerminations"]
    }
  },
  "summaryBar": {
    "apiUrl": "/api/analytics/human_capital_kpis",
    "bars": {
      "Headcount": [
        {
          "name": "Current",
          "column": "current_headcount",
          "decimals": 0,
          "details": {
            "type": "table",
            "numColumns": 4,
            "hiddenColumns": ["personnel_number"],
            "apiUrl": "/api/analytics/human_capital_kpi_details?type=headcount"
          }
        },
        {
          "name": "Growth",
          "column": "headcount_growth",
          "decimals": 2,
          "suffix": "%"
        }
      ],
      "Hires": [
        {
          "name": "Current",
          "column": "hires",
          "decimals": 0,
          "details": {
            "type": "table",
            "numColumns": 5,
            "hiddenColumns": ["short_name"],
            "apiUrl": "/api/analytics/human_capital_kpi_details?type=hires"
          }
        },
        {
          "name": "Pending",
          "column": "pending_hires",
          "decimals": 0,
          "details": {
            "type": "table",
            "numColumns": 5,
            "apiUrl": "/api/analytics/human_capital_kpi_details?type=pending_hires"
          }
        }
      ],
      "Terminations": [
        {
          "name": "Voluntary",
          "column": "voluntary_terminations",
          "decimals": 0,
          "details": {
            "type": "table",
            "numColumns": 7,
            "hiddenColumns": ["personnel_number"],
            "apiUrl": "/api/analytics/human_capital_kpi_details?type=vol_terms"
          }
        },
        {
          "name": "Involuntary",
          "column": "involuntary_terminations",
          "decimals": 0,
          "details": {
            "type": "table",
            "numColumns": 7,
            "hiddenColumns": ["personnel_number"],
            "apiUrl": "/api/analytics/human_capital_kpi_details?type=invol_terms"
          }
        }
      ]
    }
  }
}
