{
  "id": 3,
  "deckName": "requisition",
  "title": "Requisition",
  "cards": ["openReqsTypeTotals", "requisitionLocations", "requisitionsAverageDaysOpen", "openReqsAgingByManager", "requisitionCountByVariable", "daysOpenRange", "reqTimeToFillAcceptAndAvgDaysOpen"],
  "gridsterOpts": {
    "widget_base_dimensions": ["auto", 150]
  },
  "summaryBar": {
    "queryTemplate": "SELECT count(distinct(CASE WHEN req_current_parent_status IN ('open', 'approved', 'sourcing') AND req_type = 'funded' THEN requisition_number END)) AS funded_total, avg(CASE WHEN req_current_parent_status IN ('open', 'approved', 'sourcing') AND req_type = 'funded' THEN req_days_open END) AS funded_avg_aging, count(distinct(CASE WHEN req_current_parent_status IN ('open', 'approved', 'sourcing') AND req_type = 'conditional' THEN requisition_number END)) AS conditional_total, avg(CASE WHEN req_current_parent_status IN ('open', 'approved', 'sourcing') AND req_type = 'conditional' THEN req_days_open END) AS conditional_avg_aging, ROUND(100.0 * (SUM(CASE WHEN req_current_parent_status IN ('open', 'approved', 'sourcing') AND number_candidates = 0 AND req_type = 'funded' THEN 1 ELSE 0 END)::NUMERIC / NULLIF(count(distinct(CASE WHEN req_current_parent_status IN ('open', 'approved', 'sourcing') AND req_type = 'funded' THEN requisition_number END)), 0)), 2) AS zero_candidates FROM resource_management_with_accepted WHERE ${reqAcceptedClause} AND date_trunc('day', report_date)::DATE BETWEEN '${startDate}' AND '${endDate}' AND report_date::DATE = (SELECT MAX(report_date::DATE) FROM resource_management_with_accepted) AND ${managerClause}",
    "bars": {
      "Funded Requisitions": [
        {
          "name": "total",
          "column": "funded_total",
          "decimals": 0
        },
        {
          "name": "avg aging",
          "column": "funded_avg_aging",
          "decimals": 0,
          "suffix": "DAYS"
        }
      ],
      "Conditional Requisitions": [
        {
          "name": "total",
          "column": "conditional_total",
          "decimals": 0

        },
        {
          "name": "avg aging",
          "column": "conditional_avg_aging",
          "decimals": 0,
          "suffix": "DAYS"
        }
      ],
      "Funded Reqs w/ Zero Candidates": [
        {
          "name": "percentage",
          "column": "zero_candidates",
          "suffix": "%"
        }
      ]
    }
  }
}
